Rate 0.788343 0.015617 
I1s 0.364404 0.027406 
I2c 0.021800 0.139188 
I2s -0.066474 0.081761 
I6c 0.219232 0.068663 
I6s -0.272060 0.039820 
I3 -0.334458 0.460913 
I4 -0.140303 0.100057 
I5 0.237997 0.079412 
I7 0.019354 0.054026 
I8 -0.187835 0.111437 
I9 0.086813 0.099476 
loglh 56.804014 3
